{
"0": "Звук", 
"1": "Игра", 
"2": "Графика", 
"3": "Ввод", 
"4": "Разное", 
"5": "Общий звук:%d", 
"6": "Эффекты:%d", 
"7": "Разрешение", 
"8": "Полный экран", 
"9": "Неогр. FPS", 
"10": "Показ. FPS", 
"12": "Запустить настройку смещения", 
"13": "Задерж. нажатий:%+d", 
"14": "Виз. смещение:%+d", 
"15": "Ширина колонок:", 
"16": "Фикс. ширина колонок", 
"17": "Фикс. ширина конвеера", 
"18": "Распологать DJ disk слева", 
"19": "Убрать раскадровку", 
"20": "Убрать вирт. клавиатуру", 
"21": "Клавиатура во всю ширину", 
"22": "Сбросить настройки клавиш", 
"23": "Обновить все карты", 
"24": "Посетить сайт", 
"25": "Язык", 
"26": "Системный звук:%d", 
"27": "Распол. колонок:%d%%", 
"28": "Проверить обновления", 
"29": "Исп. 3D колонки", 
"30": "Угол наклона конвеера:%d", 
"31": "Вкл. Android клавиатуру", 
"32": "Полные граф. эффекты", 
"33": "Показывать полосу точности", 
"34": "Вкл. звуки клавиш", 
"35": "Польз. звуки клавиш", 
"36": "Выйти", 
"37": "Текущий скин", 
"38": "Портретный режим", 
"39": "Включить тачскрин", 
"40": "Выход", 
"41": "Убрать линии между колонок", 
"42": "Качество аудио:%d", 
"43": "Помошь", 
"44": "Экспериментально", 
"45": "Использ. новый звуковой движок", 
"46": "Отзывы и ошибки", 
"47": "Показать ноты", 
"48": "Сеть", 
"49": "Сервер", 
"50": "Громкость музыки", 
"51": "Громкость эффектов", 
"52": "Задержка нажатия", 
"53": "Граф. смещение", 
"54": "Наклон колонок", 
"55": "Располож. карт:", 
"56": "Повернуть игровое поле", 
"57": "Использовать ASIO:", 
"58": "Ориг. название песен", 
"59": "Откл. прокрутку", 
"60": "Версия", 
"61": "Платформа", 
"62": "Табличный режим", 
"63": "Использвать OpenSL", 
"64": "Управление скином", 
"65": "Инверт. колесо мыши", 
"66": "Вкл. звук нажатия в конце", 
"67": "Выберите, чтобы изменить раскладку", 
"68": "Назначить клавишу на", 
"69": "Хост сервера магазина", 
"70": "Игра с постоянным FPS", 
"71": "Частота обновления", 
"72": "Граф. эффекты", 
"73": "Масштаб сцены", 
"74": "Компен. 3D движений", 
"75": "Компен. 3D толщины", 
"76": "Положение крышки", 
"77": "Пропустить звуковое превью", 
"78": "Hold Adjustment",
"79": "Stop On Hit",
"80": "Stop On Judge",
"81": "Snap to Judge",
"82": "Hit Distance",
"83": "Backup",
"84": "Note Appearance",
"85": "Show Touch Point",
"86": "ISSUES\nREPORT",
"100": "Удалить песню", 
"101": "Открыть папку песни", 
"102": "Удалить чарт", 
"103": "Очистить локальный топ", 
"104": "Посмотреть в магазине", 
"105": "Нестабильная", 
"106": "Выберите режим", 
"107": "Предпоч. режим", 
"108": "Коснитесь для поиска", 
"109": "Редакт. этот чарт", 
"110": "Сделать новый чарт", 
"111": "Найти ещё чарты", 
"112": "Создать новый чарт", 
"113": "Назад", 
"114": "Рейтинг", 
"115": "Опции", 
"116": "Локально", 
"117": "Прогресс", 
"118": "Завершено", 
"119": "Пауза", 
"120": "Принять", 
"121": "Оценивание", 
"122": "Показать все чарты", 
"123": "Посмотреть на сайте", 
"124": "Недоступна", 
"125": "Неизвестно", 
"126": "Скопировать и изменить", 
"127": "Локальный Ранк", 
"128": "Онлайн Ранк", 
"129": "Лучший результат", 
"130": "Скорость нот", 
"131": "Список загрузок", 
"132": "Поиск", 
"133": "Как импортировать чарты?", 
"134": "Как конвертировать аудио в OGG", 
"135": "Вы действительно хотите удалить этот чарт?", 
"136": "Вы действительно хотите удалить песню?", 
"137": "Импортировать чарты", 
"138": "Загрузка завершена", 
"139": "Поделиться чартом в...", 
"140": "Создать новую коллекцию", 
"141": "Вы действительно хотите удалить эту коллекцию?", 
"142": "Добавлено", 
"143": "Убрать", 
"144": "Все чарты", 
"145": "Введите для поиска", 
"146": "Список сообщений", 
"147": "Нет сообщений", 
"148": "Песен включено", 
"149": "Чартов включено", 
"150": "Удалить", 
"151": "Поделиться", 
"170": "Список друзей", 
"171": "Поиск игрока", 
"172": "Отправить сообщение", 
"173": "Пригласить в комнату", 
"174": "Аудио для нового чарта", 
"175": "Импортировать скин", 
"176": "Комментарии", 
"177": "Глобальный рейтинг", 
"178": "Песни", 
"179": "ПОсмотреть реплей", 
"180": "Еженедельное", 
"181": "Мьют", 
"182": "Поделиться набором песни с", 
"183": "Поделиться набором чарта с", 
"184": "Watch Live Stream",
"185": "Stop Watch",
"186": "Live Streaming",
"187": "Start Live",
"188": "Finish Live",
"200": "Посмотреть идеальное прохождение от Марло", 
"201": "Сыграть со случайным порядком нот", 
"202": "Сыграть с зеркальными нотами", 
"203": "Игнор. изменения скорости", 
"204": "Ускорение нот на 20%", 
"205": "Ускорение нот на 50%", 
"206": "Исчезающие ноты", 
"207": "Сыграть с оригинальным оцениванием", 
"208": "Замедление на 20%", 
"209": "Не умри)", 
"210": "Использовать одно оценивание для матча", 
"211": "Играть с перевернутыми нотами", 
"212": "Reduce note number to fit thumb-style",
"213": "Reduce note number to make chart much easier",
"214": "Replace all holds to taps",
"215": "Replace all taps to holds",
"250": "Сложность", 
"251": "Определенный", 
"252": "Помощь", 
"253": "Сброс", 
"254": "Повышение очков", 
"255": "Этот мод не разрешен", 
"256": "No online ranking",
"300": "Раскладка клавиш", 
"301": "Нажмите [Esc] для сброса", 
"302": "Попробуйте смещение: %d", 
"303": "Закончить прохождение?", 
"304": "Выйти на данном месте", 
"305": "Очки", 
"306": "Комбо", 
"307": "Точность", 
"308": "Задержка чарта", 
"309": "Затемнение фона", 
"310": "Закончить", 
"311": "Watch Player",
"312": "Start Live Streaming",
"313": "The Host is offline",
"314": "Thank you for watching",
"315": "The Host has paused",
"316": "Start watching: ",
"317": "Watch Status Display At",
"318": "Top",
"319": "Left",
"320": "Right",
"321": "Hide",
"322": "Buffering...",
"400": "Нажмите, чтобы войти", 
"401": "Войти", 
"402": "Профиль", 
"403": "Регистрация", 
"404": "Логин", 
"405": "Пароль", 
"406": "Забыли?", 
"407": "Repeat Password",
"500": "Пожалуйста, добавьте песни в папку <pending>", 
"501": "Пожалуйста, добавьте песни в папку <sdcard/data/malody/pending>", 
"502": "Пожалуйста, перетащите песни в iTunes", 
"503": "Пожалуйста, перетащите песни (zip файл) в Malody", 
"504": "Пожалуйста, запакуйте файлы вашего скина в msz(zip)", 
"505": "Пожалуйста, добавьте файл .wav в папку <skin>", 
"506": "Калибровка смещения звука", 
"507": "Нажмите F или коснитесь экрана, когда нота и красная полоса поравняются", 
"600": "Все", 
"601": "Название", 
"602": "Длительность", 
"603": "BPM", 
"604": "Время добавления", 
"605": "Стабильный", 
"606": "Бета", 
"607": "Альфа", 
"608": "Оффлайн Чарт", 
"609": "Обновите", 
"610": "Last Played",
"611": "Earliest Played",
"650": "Возрастание", 
"651": "Убывание", 
"700": "Поддержать", 
"701": "Поддержите золотом (50), если вам понравилась эта карта", 
"702": "Вы получили новый ранк: #%d", 
"703": "Ваш онлайн рекорд %d (+%d)", 
"704": "Спасибо за поддержку!", 
"705": "Повторить", 
"706": "Отправляется", 
"707": "Карта нестабильна", 
"708": "Отправка не удалась", 
"709": "Рекомендую", 
"710": "Нерекомендую", 
"711": "Написать\nКомментарий", 
"712": "Эта карта хорошая, я советую её другим игрокам", 
"713": "Эта карта имеет недочёты, требуется доработка", 
"714": "Оставьте комментарий об этой карте на сайте", 
"715": "Обзор", 
"716": "Экспортировать в:", 
"717": "Новое место в строке лидеров", 
"718": "Реплей", 
"719": "Глобальный Ранк", 
"720": "Пожертвовать 50 золота", 
"721": "Пожертвовать 500 золота", 
"722": "Отменить рекомендацию", 
"723": "Отменить \"не рекомендую\"", 
"724": "Выйти", 
"725": "Продолжить", 
"726": "Ранк в матче", 
"727": "Результат отправлен", 
"800": "Войдите в учётную запись для общения с другими", 
"801": "Вы в публичном канале чата", 
"802": "Добавить в список друзей", 
"803": "Друзья", 
"804": "Взаимный друг", 
"805": "Достижения", 
"806": "Пазлы", 
"807": "Выйти", 
"808": "Каналы", 
"809": "Создать комнату", 
"810": "Список комнат", 
"811": "Название команты", 
"812": "Игроки", 
"813": "В режиме ожидания", 
"814": "В режиме игры", 
"815": "Показать комнаты в режиме ожидания", 
"816": "Готов", 
"817": "Не готов", 
"818": "Начать", 
"819": "Удалить игрока", 
"820": "Передать права хоста", 
"821": "Критерий победы", 
"822": "Победа по лучшему результату", 
"823": "Победа по большему комбо", 
"824": "Победа по лучшей точности", 
"825": "Спрятать ноты", 
"826": "Выключить звук", 
"827": "Командный режим", 
"828": "Одиночный режим", 
"829": "Две команды", 
"830": "Модификации", 
"831": "Последняя игра", 
"832": "%d дней назад", 
"833": "%d часов назад", 
"834": "%d минут назад", 
"835": "Добавлено время", 
"836": "Время последней игры", 
"837": "Песня не выбрана", 
"838": "Войти", 
"839": "%d побед подряд!", 
"840": "лет назад", 
"841": "Показать все чарты", 
"842": "Показать чарты под рассмотрением", 
"843": "Частная комната", 
"844": "Введите пароль от комнаты", 
"845": "Сыграно", 
"846": "Всего чартов сыграно", 
"847": "Топовые ранки", 
"848": "Чарты", 
"849": "Достижения", 
"850": "Паззлы", 
"851": "Профиль", 
"852": "Золото", 
"853": "Заметки", 
"854": "Редактировать профиль", 
"855": "Выбрать или создать комнату", 
"856": "Публичная комната", 
"857": "Пол", 
"858": "Дата рождения", 
"859": "Страна", 
"860": "Содержание профиля", 
"861": "Парень", 
"862": "Девушка", 
"863": "Выбрать создание комнаты", 
"864": "Выбрать песню", 
"865": "Выбрать чарт", 
"866": "10-Player Room",
"867": "Dan Records",
"868": "Are you sure to delete your account with play data",
"869": "Thank You for Playing!",
"900": "Играть онлайн", 
"901": "Играть оффлайн", 
"902": "Запустить настройку смещения", 
"903": "Нажмите \"Начать\", чтобы проиграть ритм", 
"904": "Касайтесь экрана или нажимайте F следуя ритму, чтобы получить стабильный результат", 
"905": "Начать", 
"906": "Перезапустить", 
"907": "Показать ноты", 
"908": "Звук нажатий", 
"909": "Нажимайте F под ритм, чтобы получить стабильны результат", 
"910": "Настройки", 
"911": "Беседа", 
"912": "Сеть", 
"913": "Модификации", 
"914": "Лобби", 
"915": "Комната", 
"916": "Профиль", 
"917": "Результат", 
"918": "Скин", 
"919": "Магазин", 
"920": "Задание", 
"921": "Сложность", 
"922": "Песня", 
"923": "Новости", 
"924": "Отправка", 
"925": "Коллекция", 
"926": "Редактор папок", 
"927": "Магазин плюшек",
"928": "FRIENDS",
"929": "INVENTORY",
"1000": "Войдите в учётную запись", 
"1001": "Пожалуйста, подождите", 
"1002": "Нажимайте F или касайтесь экрана в такт с каждым ударом", 
"1003": "Вы получили плохой счёт из-за неточного смещения.", 
"1004": "Хотите откалибровать автоматически?", 
"1005": "У вас нет этой песни", 
"1006": "Калибровка смещения", 
"1007": "Регулировать смещение звука по ходу игры автоматически", 
"1008": "Новый звуковой движок предоставляет наилучшие игровые ощущения на картах с нестандартными звуками нот", 
"1009": "Malody уже обновлена до последней версии", 
"1010": "Добро пожаловать в Malody Store. Здесь вы найдёте 80 новых проверенных карт от игроков со всего мира. Чтобы найти больше карт или загрузить свою собственную, посетите сайт http://m.mugzone.net", 
"1011": "Нажмите два раза, чтобы начать игру", 
"1012": "Время соединения вышло", 
"1013": "Настоятельно рекомендуем запустить настройку смещения перед первой игрой для улучшения игровых ощущений.", 
"1014": "По умолчанию", 
"1015": "Нажмите [Space], чтобы закончить", 
"1016": "Нажмите для завершения", 
"1017": "Гость", 
"1018": "Вы уверены, что хотите выйти из Malody?", 
"1019": "Ошибка сервера", 
"1020": "OK", 
"1021": "Отмена", 
"1022": "Применить к общему смещению", 
"1023": "Применить к смещению карты", 
"1024": "Malody не может загрузить эту песню", 
"1025": "Попробровать обновить", 
"1026": "Удалить песню", 
"1027": "Использовать эту песню для создания карты?", 
"1028": "Использовать это изображение как задний фон?", 
"1029": "Для этой песни нету карты, желаете создать её?", 
"1030": "Хотите посмотреть повтор?", 
"1031": "Что желаете сделать?", 
"1032": "Скин успешно импортирован", 
"1033": "Не удалось импортировать скин", 
"1034": "Вы действительно хотите удалить скин?", 
"1035": "Выбрать режим для сложности", 
"1036": "Когда вы удалите колонку, все ноты на ней также будут удалены. Вы уверены?", 
"1037": "Сдвиг нот:%+d", 
"1038": "Показать все сложности для этой карты, включая:\nСтабильные: Прошедшие модерацию, с подсчётом онлайн рекордов\nБета/Альфа: Незавершённые карты", 
"1039": "Прокрутите временную ленту и нажмите кнопку копирования ещё раз, чтобы выбрать конец копируемого отрезка", 
"1040": "Нажмите кнопку [Вставить], чтобы вставить ноты", 
"1041": "Нажмите, чтобы продолжить", 
"1042": "Нажмите для общения", 
"1043": "Операция завершилась успешно", 
"1044": "Успешно импортировано", 
"1045": "Не удалось импортировать", 
"1046": "Поставить другую кнопку на диск", 
"1047": "Malody поддерживает USB клавиатуры для Android устройств, проверьте подключение клавиатуры", 
"1048": "Вас упомянули на канале", 
"1049": "Если вы считаете, что Malody хорошая игра, пожалуйста, оставьте комментарий в AppStore, чтобы помочь другим игрокам выбрать эту игру", 
"1051": "Хорошо, сделать это сейчас", 
"1052": "Режим звонка", 
"1053": "Чтобы использовать эту функцию, проверьте, есть ли в устройстве вывод ASIO", 
"1054": "Перезапустите игру для применения настроек", 
"1055": "Malody подарок любителям всех музыкальных ритм игр", 
"1056": "Этот скин стоит %d золота", 
"1057": "Поменять оффсет на:", 
"1058": "Входим", 
"1059": "Вход", 
"1060": "Измените точность нажатий", 
"1061": "Отмените статус готовности", 
"1062": "Игроки не готовы", 
"1063": "Добавлено в очередь на скачивание", 
"1064": "Подключен к серверу", 
"1065": "Теперь вы хост комнаты", 
"1066": "УПС! У вас заканчивается золото, которое нужное для скачивания чартов с магазина. Вы можете заработать больше, играя в чарты или проходя ежедневные квесты.", 
"1067": "Быстрый реплей", 
"1068": "Готов!", 
"1069": "Начинаем", 
"1070": "Минутку. Подождите", 
"1071": "Слишком сложный чарт", 
"1072": "Слишком легкий чарт", 
"1073": "Хорошо сыграно!", 
"1074": "Давайте сыграем снова", 
"1075":"We are in Early Access!\nThis means not every functionality of the game may work properly, but please make sure to report what you found annoying or simply wrong to you.\nThanks for playing Malody, and hope you will be back when the game is complete!",
"1100": "Вы уверены, что хотите выйти?", 
"1101": "Изменение раскладки", 
"1102": "Перезагрузка чартов может занять некоторое время. Вы точно хотите продолжить?", 
"1103": "Достижение открыто!", 
"1104": "Паззл открыт!", 
"1105": "Добавлено в коллекцию", 
"1106": "Невозможно сохранить профиль", 
"1107": "Вы уверены, что хотите потратить 5000 золота на 1 месяц использования пользовательским баннером?", 
"1108": "У вас недостаточно золота", 
"1109": "Вы уверены, что хотите потратить 80,000 золота на изменения никнейма? (можно изменять раз в 180 дней)", 
"1110": "Вы уверены, что хотите выйти из комнаты?", 
"1111": "Эта функция еще в разработке:)", 
"1112": "Вы не вошли ни в одну комнату", 
"1113": "Заплатите %d золота, чтобы купить 1 слот", 
"1114": "Ваша оплата прошла успешно", 
"1115": "Ваша оплата отклонена из-за системной ошибки", 
"1116": "email по смене вашего пароля был отправлен на вашу электронную почту", 
"1117": "Вы уверены, что хотите очистить локальный рейтинг?", 
"1118": "Покупка осуществлена успешно", 
"1119": "С модификацией Турбо вы как угодно можете изменять правила оценивания, но ваш результат не будет отправлен (засчитан)", 
"1120": "Оценивать в конце", 
"1121": "Уникальное расположение пальцев(-а)", 
"1122": "Ранний промах", 
"1123": "Убрать паузу", 
"1124": "Скорость аудио", 
"1125": "Сканирование папок чартов", 
"1126": "Обновление чартов завершено", 
"1127": "сохранить в:", 
"1128": "доступна новая версия", 
"1129": "Пауза или Продолжить выкл.", 
"1130": "Only Players on Malody V can enter 10-player room",
"1131": "Share success",
"1200": "Выбрать действие", 
"1201": "Выбрать метод сортировки", 
"1202": "Вы уверены, что хотите продолжить?", 
"1203": "Выбрать мод", 
"1204": "Выбрать объекты для импортирования", 
"1205": "Выбрать стиль чарта", 
"1206": "Вы уверены, что хотите остановить процесс загрузки?", 
"1207": "Выберите сколько золота пожертвовать", 
"1208": "выберите день без звука", 
"1209": "Shortcut",
"1210": "Upload And Share chart to other players",
"1211": "Are you sure to share the skin to workshop",
"1300": "шедевр", 
"1301": "очень позитивно", 
"1302": "позитивно", 
"1303": "немного позитивно", 
"1304": "смешанно", 
"1305": "немного негативно", 
"1306": "негативно", 
"1307": "очень негативно", 
"2000": "Удаление не удалось", 
"2001": "Невозможно удалить SM карту", 
"2002": "Не удалось отправить сообщение", 
"2003": "Версия клиента слишком старая", 
"2004": "Карта нестабильна", 
"2005": "Вход не удался: попробуйте позже", 
"2006": "Вход не удался: логин или пароль не совпадают", 
"2007": "Пожалуйста, выберите позицию позже начала", 
"2008": "Пожалуйста, удалите другие ноты с позиции слайдера", 
"2009": "Невозможно скопировать файл в папку карты", 
"2010": "Сначала разместите слайдер", 
"2011": "Невозможно разместить ноту здесь", 
"2012": "Поддерживаются только изображения формата jpg/png", 
"2013": "Доступны только режимы Pad/Key/Catch", 
"2014": "Поддерживаются только аудиозаписи формата mp3/ogg", 
"2015": "Неверный SID", 
"2016": "Неверный CID", 
"2017": "Вы не владелец этой карты", 
"2018": "Проверьте информацию о карте", 
"2019": "Невозможно загрузить нормализованную карту", 
"2020": "Ошибка сервера", 
"2021": "Невозможно загрузить на сервер", 
"2022": "Сначала отмените предыдущую загрузку", 
"2023": "Не удалось определить BPM", 
"2024": "Загружаемый файл уже есть на сервере. Редактор повторно загрузит его после автоматического переименовывания", 
"2025": "Выберите изображение весом менее 2MB", 
"2026": "Диск полон или недоступен для записи", 
"2027": "Невозможно загрузить данный вид файла", 
"2028": "Ноты не выделены", 
"2029": "Недостаточно слотов для карт!\n Каждая карта занимает 1 слот до тех пор, пока не будет стабилизирована. Попробуйте стабилизировать уже загруженные или приобретите дополнительные слоты.", 
"2030": "Нельзя поддержать нестабильную карту", 
"2031": "Недостаточно золота для поддержки", 
"2032": "Невозможно оценить эту карту", 
"2033": "Отключено от сервера", 
"2034": "Невозможно добавить сюда BPM", 
"2035": "Неверное число BPM", 
"2036": "Невозможно выполнить данную операцию", 
"2037": "Изменения доступны для данного профиля", 
"2038": "Максимальные настройки видео 720p@25fps", 
"2039": "Невозможно скопировать не Malody сложность", 
"2040": "Невозомжно выбрать режим для этого скина", 
"2041": "У вас недостаточно золота", 
"2042": "Невозможно скачать этот файл", 
"2043": "Невозомжно войти в комнату", 
"2044": "Невозможно создать новую комнату", 
"2045": "Введите название комнаты", 
"2046": "Уже в комнате", 
"2047": "Испорченный файл реплея", 
"2048": "Невозможно запустить пустой чарт", 
"2049": "Ошибка загрузки чарта", 
"2050": "Выключите динамический оффсет чтобы отправить результат", 
"2052": "Комната заполнена", 
"2053": "Пожалуйста, сыграйте лучше", 
"2054": "На доработке", 
"2055": "Чарта нет в магазине", 
"2056": "Пожалуйста, добавьте ноты", 
"2057": "У вас уже 6 чартов, ожидающих рассмотрения", 
"2058": "Пожалуйста, обновите до последней версии, чтобы использовать эту возможность", 
"2059": "Неверный пароль!", 
"2060": "Некоторые команды все еще пустые. Дисбаланс!", 
"2061": "[Ошибка] Нужно точное название чарта, исполнителя, версии итд.", 
"2062": "[Ошибка] Чарт содержит перекрывающиеся ноты", 
"2063": "[Ошибка] Добавьте фоновое изображение", 
"2064": "[Ошибка] Чарт должен длится минимум 60 сек и иметь должное количество нот", 
"2100": "Пожалуйста, выберите одну скользящую ноту", 
"2101": "Пожалуйста, выберите хотя бы 3 вайп ноты", 
"2102": "Пожалуйста, рассмотрите чарт перед отправкой", 
"2103": "Название или исполнитель содержат недопустимые символы", 
"2104": "Вход не удался: Вы забанены!!!", 
"2105": "Пожалуйста, введите основную информацию", 
"2106": "Пароль не должен быть короче 8 символов", 
"2107": "Пароль не совпадает", 
"2108": "Это имя пользователя уже было зарегистрировано", 
"2109": "Этот электронный адрес уже был зарегистрирован", 
"2110": "Только символы a-z 0-9 и []()-_@ разрешены в имени пользователя, которое должно быть не короче 3 символов", 
"2111": "Неправильный E-mail", 
"2112": "Отправка не удалась", 
"2113": "Конвертация аудио файла не удалась", 
"2114": "Пожалуйста, выберите один чарт", 
"2115": "Неправильный формат даты", 
"2116": "Вы уже изменяли имя пользователя в течение 180 дней", 
"2117": "Не удалось загрузить больше чартов по некоторым причинам", 
"2118": "Пожалуйста, выберите сервер магазина в настройках", 
"2119": "Невозможно задонатить самому себе", 
"2120": "Пожалуйста, сыграйте в чарт и отправьте результат перед пожертвованием", 
"2121": "Вы пожертвовали 1000 золота на чарт", 
"2122": "Неизвестный хост или несовпадимый API", 
"2123": "The server is about to restart, multiplayer has been disabled",
"2124": "Can not retrive file from server",
"2125": "Can not connect to Steam",
"2126": "You have no permission",
"2127": "Please select one skin",
"2128": "Can not find proper info for the skin",
"2129": "The Host has incompatible API",
"3000": "Изменения будут сохранены после окончания теста", 
"3001": "Сохранить изменения перед выходом?", 
"3002": "Удаление всех нот необратимо", 
"3003": "Выход", 
"3004": "Название", 
"3005": "Исполнитель", 
"3006": "Аудио", 
"3007": "Обложка", 
"3008": "Задний фон", 
"3009": "BPM", 
"3010": "Смещение", 
"3011": "Сохранить", 
"3012": "Информация", 
"3013": "Загрузить на сервер", 
"3014": "Удалить все ноты", 
"3015": "Автоопределение", 
"3016": "Прокрутите временную линию и выберите конечную точку", 
"3017": "Проверить с текущей позиции", 
"3018": "Проверить с начала", 
"3020": "Успешно загружено", 
"3021": "Успешно сохранено", 
"3022": "Загрузка отменена", 
"3023": "Хотите отменить загрузку?", 
"3024": "Автоопределение BPM успешно", 
"3025": "Применить результат", 
"3026": "Неопределённость:", 
"3027": "В первый раз рекомендуется использовать Автоопределение BPM и смещения, которое находится в Меню -> Информация во время редактирования. Там же параметры могут быть выставлены вручную.", 
"3028": "Как стабилизировать мою карту", 
"3029": "Показать карты на сайте", 
"3030": "Колонка", 
"3031": "Выйти и сохранить", 
"3032": "Выйти без сохранения", 
"3033": "Купить больше слотов для карт", 
"3034": "Текущие слоты:", 
"3035": "Разделить", 
"3036": "Скорость", 
"3037": "Функции", 
"3038": "Список файлов", 
"3039": "Успешно экспортировано в папку <export>", 
"3040": "Не удалось экспортировать", 
"3041": "Экспортировать файл с картой", 
"3042": "Успешно экспортировано в папку <Documents/export>", 
"3043": "Автосохранение каждую минуту", 
"3044": "Зафиксировать ноты", 
"3045": "Снизить скорость", 
"3046": "Нажмите ту же кнопку, чтобы задать конец", 
"3047": "Конец линии", 
"3048": "ВАУ! Появилась дикая Марло!", 
"3049": "Линия стартует с", 
"3050": "Задать с текущего ритма", 
"3051": "Количество ударов", 
"3052": "Отправить", 
"3053": "Отправить на рассмотрение", 
"3054": "Ожидание рассмотрения", 
"3055": "Рассматривается", 
"3056": "Отклонен", 
"3057": "Нет результата", 
"3058": "Пометить как Рассматривается", 
"3059": "Пометить как Отклонен", 
"3060": "Отменить отправку", 
"3061": "Связаться с выкладывателем чартов", 
"3062": "Связаться с создателем чарта", 
"3063": "Загрузить чарт", 
"3064": "Выбрать область копирования", 
"3065": "Вставить", 
"3066": "Вырезать", 
"3067": "Отзеркалить ноты по горизонтали", 
"3068": "Настройки сетки", 
"3069": "Линии сетки", 
"3070": "Выравнивание сетки", 
"3071": "Изменение скольжения", 
"3072": "Скольжение в вайп", 
"3073": "вайп в скольжение", 
"3074": "Время превью", 
"3075": "Оригинальное название", 
"3076": "Оригинальный исполнитель", 
"3077": "Один шаг", 
"3078": "Создатель", 
"3079": "Загрузить", 
"3080": "Тест-плей", 
"3081": "Отмена", 
"3082": "Повторить", 
"3083": "Выявление BPM", 
"3084": "Публичный keymap", 
"3085": "Keymap текущего мода", 
"3086": "Добавить", 
"3087": "Удалить все ноты", 
"3088": "Применить результат обнаружения BPM к основной временной точке?", 
"3089": "Полный Набор Разделителей", 
"3090": "Позволить рассматривание ИИ", 
"3091": "Масштаб сетки", 
"3092": "Больше действия", 
"3093": "Показать статистику", 
"3094": "Note Thickness",
"3095": "Scroll Multiplier",
"3096": "Note Align to Grid",
"3097": "Peer Review",
"3098": "Related Notes",
"3099": "Related Time",
"3100": "Reply",
"3101": "Issue Label",
"3102": "Open",
"3103": "Closed",
"3104": "Reopen",
"3105": "Invalid",
"3500": "Сохранить", 
"3501": "Тестировать", 
"3502": "",
"3503": "Громкость+", 
"3504": "Громкость-", 
"3505": "Звук клавиш+", 
"3506": "Звук клавиш-", 
"3507": "Скорость+", 
"3508": "Скорость-", 
"3509": "Продолжить/Пауза", 
"3510": "Разделение+", 
"3511": "Разделение-", 
"3512": "Копировать", 
"3513": "Вставить", 
"3514": "Инструмент Нота", 
"3515": "Инструмент Зажатие", 
"3516": "Инструмент Выбор", 
"3517": "Инструмент Удаление", 
"3518": "Отменить", 
"3519": "Повторить", 
"3520": "Перевернуть ноты", 
"3521": "Открыть BPM лист", 
"3522": "Показать информацию", 
"3523": "Показать загрузку", 
"3524": "Инструмент вайп", 
"3525": "Интсрумнт Слайд", 
"3526": "Сплит", 
"3527": "Объеденить", 
"3528": "Инструмент flick", 
"3529": "Изменить размер", 
"3530": "Добавить ноту \"Дон\"", 
"3531": "Добавить ноту \"Ка\"", 
"3532": "Добавить \"Roll\"", 
"3533": "Добавить \"Воздушный шар\"", 
"3534": "Добавить пробел", 
"3535": "Подвинуть влево", 
"3536": "Подвинуть вправо", 
"3537": "Вырезать", 
"3538": "Удалить выбранное", 
"3539": "Scale+",
"3540": "Scale-",
"3541": "Add Issue",
"3542": "Mute Key Sound",
"3543": "More Action",
"3600": "Назад", 
"3601": "Выбрать верхнее", 
"3602": "Выбрать нижнее", 
"3603": "Подтвердить", 
"3604": "Переключить воспроизведение", 
"3605": "Воспроизвести след.", 
"3606": "Воспроизвести посл.", 
"3607": "Обновить чарты", 
"3608": "Снимок экрана", 
"3609": "Quick Retry",
"4000": "Неизвестно", 
"4001": "Азия", 
"4002": "Африка", 
"4003": "Северная Америка", 
"4004": "Южная Америка", 
"4005": "Европа", 
"4006":"Australia",
"4007":"Japan",
"4008":"China",
"4009":"United States",
"4010":"Taiwan (China)",
"4011":"Korea",
"4012":"Germany",
"4013":"Russian",
"4014":"Poland",
"4015":"France",
"4016":"Hong Kong (China)",
"4017":"Canada",
"4018":"Chile",
"4019":"Indonesia",
"4020":"Brazil",
"4021":"Thailand",
"4022":"Italy",
"4023":"United Kingdom",
"4024":"Argentina",
"4025":"Philippines",
"4026":"Finland",
"4027":"Netherlands",
"4028":"Malaysia",
"4029":"Spain",
"4030":"Mexico",
"4031":"Sweden",
"4032":"Singapore",
"4033":"New Zealand",
"4034":"Vietnam",
"4035":"Belgium",
"4036":"Switzerland",
"4037":"Austria",
"4038":"Bulgaria",
"4039": "Macau (China)",
"5000": "Welcome to Malody V, Would you like a tutorial?",
"5001": "Import local charts/skins/music etc.",
"5002": "Filter song list by favourite",
"5003": "Filter song list by play mode",
"5004": "Multiplayer lobby, Dan room",
"5005": "View chart/skin shared by other players",
"5006": "Daily quests",
"5007": "News from server",
"5008": "View friends or search other players",
"5009": "Chat with other online players",
"5010": "View download records, music controller",
"5011": "Add selected chart to collection",
"5012": "Change play difficulty/mods",
"5013": "View chart comments, global ranking",
"5014": "Change judge difficulty, custom judgement",
"5015": "Change note speed",
"5016": "Manage/Share chart",
"5017": "More options like offset and graphics are available when the game is paused",
"5018": "Donate gold to chart creator",
"5019": "Recommend/Not Recommend the chart to other players",
"5020": "Share chart replay",
"5021": "View technical statistics"
}
