{
  "0": "Âm thanh",
  "1": "Cài đặt trò chơi",
  "2": "Đồ họa",
  "3": "Thiết bị đầu vào",
  "4": "Khác.",
  "5": "Âm Lượng Nhạc:%d",
  "6": "Âm Lượng Hiệu Ứng:%d",
  "7": "Độ phân giải",
  "8": "Toàn màn hình",
  "9": "FPS Cao",
  "10": "Hiện FPS",
  "12": "Kiểm tra độ trễ",
  "13": "Độ Trễ Nốt:%+d",
  "14": "Độ Trễ Đồ Họa:%+d",
  "15": "Chiều Rộng Cột Chế Độ Key",
  "16": "Chiều Rộng Cột Cố Định",
  "17": "Chiều Rộng Bảng Cố Định",
  "18": "Đĩa DJ Bên Trái",
  "19": "Ẩn Storyboard",
  "20": "Ẩn Bàn Phím Ảo",
  "21": "Dùng Bàn Phím Đầy Đủ",
  "22": "Đặt Lại Cài Đặt Nút",
  "23": "Làm Mới Tất Cả Màn Chơi",
  "24": "Truy cập trang web",
  "25": "Ngôn ngữ",
  "26": "Âm Lượng Hệ Thống:%d",
  "27": "Vị Trí Cột Trong Chế Độ Key:%d%%",
  "28": "Kiểm tra Cập nhật",
  "29": "Sử Dụng Cột 3D",
  "30": "Góc Cột:%d",
  "31": "Sử Dụng Bàn Phím Rời",
  "32": "Sử Dụng Đầy Đủ Hiệu Ứng",
  "33": "Hiện Thanh Độ Trễ Khi Chơi",
  "34": "Bật Âm Phím",
  "35": "Âm Phím Tùy Chỉnh",
  "36": "Đăng xuất",
  "37": "Skin Hiện Tại",
  "38": "Sử dụng Màn Hình Dọc",
  "39": "Sử dụng Màn hình Cảm Ứng",
  "40": "Thoát",
  "41": "Ẩn Viền Cột",
  "42": "Hiệu Suất Âm Thanh:%d",
  "43": "Trợ giúp",
  "44": "Thử nghiệm",
  "45": "Sử dụng hệ thống âm phím mới",
  "46": "Phản Hồi & Báo Lỗi",
  "47": "Xem trước Giao Diện chế độ Key",
  "48": "Mạng",
  "49": "Máy chủ",
  "50": "Âm Lượng Nhạc",
  "51": "Âm Lượng Hiệu Ứng",
  "52": "Độ Trễ Nốt",
  "53": "Độ Trễ Đồ Họa",
  "54": "Góc Cột",
  "55": "Đường dẫn màn chơi tùy chỉnh:",
  "56": "Xoay khu vực chơi",
  "57": "Sử dụng ASIO",
  "58": "Hiển thị ngôn ngữ gốc của tiêu đề",
  "59": "Tắt cuộn nốt trong trình soạn thảo",
  "60": "Phiên bản",
  "61": "Nền tảng",
  "62": "Danh sách nhạc dạng lưới",
  "63": "Sử dụng OpenSL",
  "64": "Quản lí skin",
  "65": "Đảo ngược con lăn chuột",
  "66": "Âm Phím ở Cuối Nốt Giữ",
  "67": "Chọn để thay đổi phím",
  "68": "Thiết Lập Phím cho:",
  "69": "Máy Chủ Màn Chơi",
  "70": "Khóa FPS Khi Chơi",
  "71": "Tỉ Lệ Làm Mới",
  "72": "Hiệu Ứng Đồ Họa",
  "73": "Tỉ Lệ Khung Cảnh",
  "74": "Bù Chuyển Động 3D",
  "75": "Bù Độ Dày 3D",
  "76": "Vị Trí Bìa Nhạc",
  "77": "Bỏ qua nghe trước âm phím",
  "78": "Chỉnh Sửa Nốt Giữ",
  "79": "Dừng Trên Nốt Nhấn",
  "80": "Dừng Trên Judge",
  "81": "Chập Vào Judge",
  "82": "Khoảng Cách Nhấn",
  "83": "Sao Lưu",
  "84": "Ngoại hình của Nốt",
  "85": "Hiển Thị Điểm Cảm Ứng",
  "86": "BÁO\nLỖI",
  "100": "Xóa Bài",
  "101": "Mở Thư Mục Gốc",
  "102": "Xóa Màn Chơi",
  "103": "Xóa điểm trên Máy",
  "104": "Xem trong cửa hàng",
  "105": "Chưa ổn định",
  "106": "Lựa chọn mod",
  "107": "Chế độ ưu tiên",
  "108": "Nhấn để tìm kiếm",
  "109": "Chỉnh sửa màn chơi này",
  "110": "Tạo màn chơi mới",
  "111": "Tìm thêm màn chơi",
  "112": "Tạo màn chơi mới",
  "113": "TRỞ VỀ",
  "114": "Xếp hạng",
  "115": "Tùy chọn",
  "116": "Cục bộ",
  "117": "Tiến trình",
  "118": "Hoàn tất",
  "119": "Tạm dừng",
  "120": "Chấp nhận",
  "121": "Đánh giá",
  "122": "Hiển thị tất cả màn chơi",
  "123": "Xem trên Web",
  "124": "Không khả dụng",
  "125": "Không xác định",
  "126": "Sao chép và chỉnh sửa",
  "127": "XẾP HẠNG TRÊN MÁY",
  "128": "XẾP HẠNG TRỰC TUYẾN",
  "129": "ĐIỂM CAO NHẤT",
  "130": "Tốc độ nốt",
  "131": "Danh Sách Tải",
  "132": "Tìm kiếm",
  "133": "Cách Thêm Màn Chơi",
  "134": "Đang đổi âm thanh sang dạng file OGG",
  "135": "Bạn có chắc chắn muốn xóa màn chơi này không?",
  "136": "Bạn có chắc chắn muốn xóa bài hát này không?",
  "137": "Nhập màn chơi",
  "138": "Tải Xuống Thành Công",
  "139": "Chia sẻ màn chơi tới...",
  "140": "Tạo bộ sưu tập mới",
  "141": "Bạn có chắc chắn muốn xóa bộ sưu tập này không?",
  "142": "Đã thêm",
  "143": "Xóa",
  "144": "Tất cả màn chơi",
  "145": "Nhập ở đây để tìm kiếm",
  "146": "Hòm thư",
  "147": "Trống vắng quá :(",
  "148": "Có Vật Phẩm đi kèm",
  "149": "Có Màn Chơi đi kèm",
  "150": "Xoá",
  "151": "Chia sẻ",
  "170": "Danh Sách Bạn Bè",
  "171": "Tìm Kiếm Người Chơi",
  "172": "Gửi Tin Nhắn",
  "173": "Mời vào Phòng",
  "174": "Nhập âm thanh cho màn chơi mới",
  "175": "Nhập skin",
  "176": "Bình luận",
  "177": "Xếp Hạng Toàn Cầu",
  "178": "Các bài hát",
  "179": "Xem lại lần chơi",
  "180": "Hàng tuần",
  "181": "Chặn",
  "182": "Chia sẻ dưới dạng Gói Nhạc",
  "183": "Chia sẻ dưới dạng Gói Màn Chơi",
  "184": "Xem Trực Tiếp",
  "185": "Ngừng Xem",
  "186": "Đang Phát Trực Tiếp",
  "187": "Lên Sóng",
  "188": "Dừng Quay",
  "200": "Xem Marlo chơi nè",
  "201": "Chơi với nốt bị xáo trộn",
  "202": "Chơi với nốt bị đảo ngược",
  "203": "Bỏ qua thay đổi tốc độ theo BPM",
  "204": "Nốt nhanh hơn 20%",
  "205": "Nốt nhanh hơn 50",
  "206": "Nốt Biến Mất Dần",
  "207": "Chơi với judgement gốc",
  "208": "Bài hát chậm lại 20%",
  "209": "Đừng chết nhé!",
  "210": "Sử dụng judge chung cho ván",
  "211": "Chơi với nốt bị lộn ngược",
  "212": "Giảm số lượng nốt để phù hợp chơi Thumb",
  "213": "Giảm số lượng nốt để dễ chơi hơn",
  "250": "ĐỘ KHÓ",
  "251": "CHI TIẾT",
  "252": "TRỢ GIÚP",
  "253": "KHÔI PHỤC",
  "254": "TĂNG ĐIỂM",
  "255": "Mod bị cấm",
  "300": "Cài đặt phím",
  "301": "Nhấn [Esc] để đặt lại",
  "302": "Thử độ trễ: %d",
  "303": "Bạn có chắc chắn muốn thoát khỏi Malody chứ?",
  "304": "Trở về vị trí hiện tại",
  "305": "Điểm",
  "306": "Combo",
  "307": "Độ chính xác",
  "308": "Độ Trễ Màn Chơi",
  "309": "Độ Tối của Nền",
  "310": "Hoàn tất",
  "311": "Xem Người Chơi",
  "312": "Lên Sóng",
  "313": "Chủ phòng ngoại tuyến",
  "314": "Cảm ơn bạn đã xem",
  "315": "Chủ phòng đã tạm dừng",
  "316": "Bắt đầu xem: ",
  "317": "Trạng thái theo dõi được hiển thị ở",
  "318": "Trên cùng",
  "319": "Bên trái",
  "320": "Bên phải",
  "321": "Giấu",
  "322": "Đang tải...",
  "400": "Nhấn để đăng nhập",
  "401": "Đăng nhập",
  "402": "Tài khoản",
  "403": "Đăng kí",
  "404": "Tên tài khoản",
  "405": "Mật khẩu",
  "406": "Quên mật khẩu?",
  "407": "Nhập lại Mật Khẩu",
  "500": "Hãy thêm bài hát vào thư mục <beatmap>, bấm F5 để làm mới",
  "501": "Hãy thêm bài hát vào thư mục <sdcard/data/malody/beatmap>, chạm để làm mới",
  "502": "Hãy kéo bài hát vào iTunes, chạm để làm mới",
  "503": "Hãy kéo bài hát (file zip) vào Malody, nhấn để làm mới",
  "504": "Hãy đổi đuôi tệp skin về đuôi .msz (.zip), đặt vào trong thư mục màn chơi để tải",
  "505": "Hãy thêm custom.wav vào thư mục <skin>",
  "506": "Hiệu chỉnh độ trễ âm thanh",
  "507": "Nhấn phím F hoặc chạm vào màn hình khi nốt chạm vào đường kẻ đỏ",
  "600": "Tất cả",
  "601": "Tiêu đề",
  "602": "Độ dài",
  "603": "BPM",
  "604": "Thời Gian Thêm",
  "605": "Ổn Định",
  "606": "Thử Nghiệm",
  "607": "Alpha",
  "608": "Màn Chơi Ngoại Tuyến",
  "609": "Cần cập nhật",
  "610": "Lần cuối chơi",
  "650": "Tăng dần",
  "651": "Giảm dần",
  "700": "Ủng hộ",
  "701": "Ủng hộ 50 vàng nếu bạn thích màn chơi này",
  "702": "Đã Đạt Hạng Mới: #%d",
  "703": "Kỉ lục cao nhất của bạn là %d (+%d)",
  "704": "Bạn đã ủng hộ thành công.",
  "705": "THỬ LẠI",
  "706": "Đang gửi điểm",
  "707": "Màn chơi không ổn định",
  "708": "Gửi thất bại",
  "709": "Đề cử",
  "710": "Không\nĐề Cử",
  "711": "Viết\nBình Luận",
  "712": "Đề cử màn chơi này đến người chơi khác",
  "713": "Màn chơi này cần được chỉnh sửa thêm",
  "714": "Để lại bình luận về màn chơi này trên trang web",
  "715": "Đánh giá",
  "716": "Xuất ra:",
  "717": "Đã Đạt Hạng Toàn Cầu Mới:",
  "718": "XEM LẠI",
  "719": "XẾP HẠNG TOÀN CẦU",
  "720": "Ủng hộ 50 vàng",
  "721": "Ủng hộ 500 vàng",
  "722": "Hủy đề cử",
  "723": "Hủy không đề cử",
  "724": "THOÁT",
  "725": "TIẾP TỤC",
  "726": "XẾP HẠNG VÁN CHƠI",
  "727": "Điểm đã được gửi",
  "800": "Hãy đăng nhập để được trò chuyện với người chơi khác",
  "801": "Bạn đang ở phòng trò chuyện công cộng",
  "802": "Kết bạn",
  "803": "Bạn",
  "804": "Bạn chung",
  "805": "Thành tích",
  "806": "Mảnh ghép",
  "807": "Đăng xuất",
  "808": "Kênh",
  "809": "Tạo phòng",
  "810": "DANH SÁCH PHÒNG",
  "811": "Tên phòng",
  "812": "Người chơi",
  "813": "Đang chờ",
  "814": "Đang chơi",
  "815": "Hiển thị phòng đang chờ",
  "816": "Sẵn sàng",
  "817": "Hủy Sẵn Sàng",
  "818": "Bắt đầu",
  "819": "Loại người chơi",
  "820": "Chuyển quyền chủ phòng",
  "821": "Chế độ tính điểm",
  "822": "Điểm cao nhất",
  "823": "Combo cao nhất",
  "824": "Độ chính xác cao nhất",
  "825": "Giấu nốt nhạc",
  "826": "Tắt tiếng",
  "827": "Chế độ đội",
  "828": "Đơn",
  "829": "Hai đội",
  "830": "Mod",
  "831": "Lần chơi cuối",
  "832": "%d ngày trước",
  "833": "%d giờ trước",
  "834": "%d phút trước",
  "835": "Ngày thêm",
  "836": "Thời gian chơi lần cuối",
  "837": "Không màn chơi nào được chọn",
  "838": "THAM GIA",
  "839": "Đang thắng %d trận liên tiếp!",
  "840": "Năm trước",
  "841": "Hiển thị tất cả màn chơi",
  "842": "Hiển thị màn chơi được đánh giá",
  "843": "Phòng riêng",
  "844": "Nhập mật khẩu phòng",
  "845": "Đã chơi",
  "846": "Số màn đã chơi",
  "847": "Xếp hạng cao nhất",
  "848": "Màn chơi",
  "849": "Thành tích",
  "850": "Mảnh ghép",
  "851": "Tài khoản",
  "852": "Vàng",
  "853": "Ghi chú",
  "854": "Chỉnh Sửa Tài Khoản",
  "855": "Chọn hoặc tạo một phòng",
  "856": "Phòng công cộng",
  "857": "Giới tính",
  "858": "Ngày Sinh",
  "859": "Khu vực",
  "860": "Thông Tin Tài Khoản",
  "861": "Nam",
  "862": "Nữ",
  "863": "Chọn hoặc tạo một phòng",
  "864": "Chọn Bài Hát",
  "865": "Chọn Màn Chơi",
  "866": "Phòng 10 Người",
  "867": "Kỷ Lục Dan",
  "868": "Bạn có muốn xóa tài khoản với dữ liệu chơi",
  "869": "Cảm ơn vì đã chơi!",
  "900": "Chơi trực tuyến",
  "901": "Chơi ngoại tuyến",
  "902": "Trình Hiệu Chỉnh Độ Trễ",
  "903": "Nhấn \"Bắt đầu\" để bắt đầu nhịp",
  "904": "Chạm vào màn hình hoặc nhấn F theo nhịp để được độ trễ ổn định",
  "905": "Bắt đầu",
  "906": "Bắt đầu lại",
  "907": "Hiển thị nốt",
  "908": "Phát âm thanh",
  "909": "Nhấn F theo nhịp điệu để được độ trễ ổn định",
  "910": "CÀI ĐẶT",
  "911": "PHÒNG CHAT",
  "912": "MẠNG LƯỚI",
  "913": "MOD",
  "914": "SẢNH",
  "915": "PHÒNG",
  "916": "TÀI KHOẢN",
  "917": "KẾT QUẢ",
  "918": "SKIN",
  "919": "CỬA HÀNG",
  "920": "NHIỆM VỤ",
  "921": "MÀN CHƠI",
  "922": "BÀI HÁT",
  "923": "TIN TỨC",
  "924": "DANH SÁCH KIỂM DUYỆT",
  "925": "BỘ SƯU TẬP",
  "926": "TRÌNH SỬA THƯ MỤC",
  "927": "CỬA HÀNG VẬT PHẨM",
  "928": "BẠN BÈ",
  "1000": "Vui lòng đăng nhập",
  "1001": "Vui lòng chờ",
  "1002": "Nhấn F hoặc chạm vào màn hình theo nhịp gõ, và điều chỉnh số độ trễ ở bên dưới để nốt trùng với thanh đỏ.",
  "1003": "Bạn đã có điểm kém do độ trễ phím chưa chuẩn.",
  "1004": "Bạn có muốn tự động điều chỉnh lại nó không?",
  "1005": "Bạn không có màn chơi này",
  "1006": "Điều chỉnh độ trễ linh hoạt",
  "1007": "Tự động điều chỉnh độ trễ âm thanh khi đang chơi, điểm sẽ không được ghi nhận nếu cài đặt này được BẬT",
  "1008": "Hệ thống âm thanh phím mới đem lại trải nghiệm chơi tốt hơn so với các màn chơi đã có sẵn âm thanh phím",
  "1009": "Bạn đang sử dụng phiên bản mới nhất của Malody",
  "1010": "Chào mừng bạn đã đến cửa hàng Malody! Đây là 80 màn chơi ổn định mới nhất được gửi lên từ mọi người chơi trên khắp thế giới. Để có thể tải xuống thêm màn chơi hoặc tải lên màn chơi của bạn, hãy truy cập vào http://m.mugzone.net",
  "1011": "Chạm hai lần để chơi màn này",
  "1012": "Hết giờ",
  "1013": "Bạn nên điều chỉnh độ trễ bằng trình trợ giúp trước khi chơi để có được trải nghiệm tốt nhất. Trình trợ giúp sẽ đặt lại độ trễ của bạn, bạn có muốn khởi động nó chứ?",
  "1014": "Mặc định",
  "1015": "Nhấn phím [Space] để kết thúc",
  "1016": "Chạm để kết thúc",
  "1017": "Khách",
  "1018": "Bạn có chắc chắn muốn thoát khỏi Malody chứ?",
  "1019": "Lỗi máy chủ",
  "1020": "OK",
  "1021": "Hủy",
  "1022": "Áp dụng cho độ trễ chung",
  "1023": "Áp dụng cho độ trễ màn chơi",
  "1024": "Malody không thể mở được bài hát, có muốn khởi đông lại game không?",
  "1025": "Thử tải lại xem",
  "1026": "Xoá bài hát",
  "1027": "Bạn có muốn dùng bài hát này để tạo màn chơi mới không?",
  "1028": "Bạn có muốn lấy ảnh này làm nền không?",
  "1029": "Bài hát này không có màn chơi nào, bạn có muốn tạo màn chơi cho bài hát này chứ?",
  "1030": "Bạn có muốn xem lại lần chơi không?",
  "1031": "Bạn muốn làm gì?",
  "1032": "Nhập skin thành công",
  "1033": "Nhập skin thất bại",
  "1034": "Bạn có chắc chắn muốn xoá skin này chứ?",
  "1035": "Chọn chế độ màn chơi",
  "1036": "Khi cột bị loại bỏ, tất cả các nốt trên cột đó sẽ bị loại theo. Bạn có muốn tiếp tục?",
  "1037": "Tính năng chỉnh sửa lại màn của game khác đang trong quá trình thử nghiệm",
  "1038": "Hiển thị tất cả các màn chơi được tạo cho bài hát, bao gồm:\nỔn Định: Được xuất bản bởi người xuất, Chấp nhận gửi điểm\nThử Nghiệm/Alpha: Màn chơi đang trong quá trình sửa đổi",
  "1039": "Cuộn theo dòng thời gian và nhấn [Sao chép] lần nữa để sao chép điểm cuối",
  "1040": "Nhấn [Dán] để đặt nốt",
  "1041": "Nhấp chuột để tiếp tục",
  "1042": "Ấn để trò chuyện",
  "1043": "Hoạt động thành công",
  "1044": "Nhập màn chơi thành công",
  "1045": "Nhập màn chơi thất bại",
  "1046": "Chọn phím khác cho đĩa DJ",
  "1047": "Malody hỗ trợ bàn phím OTG cho Android, hãy đảm bảo là bàn phím đã được cắm vào điện thoại nhé!",
  "1048": "Bạn được nhắc đến trong kênh công cộng",
  "1049": "Nếu bạn thấy Malody thật tuyệt thì hãy để lại một bình luận về nó trên App Store để giúp những người khác có thể chơi trò chơi này nhé!",
  "1051": "Được, làm đi",
  "1052": "Xem trước chế độ Ring",
  "1053": "Để dùng tính năng này, hãy đảm bảo rằng thiết bị của bạn hỗ trợ chế độ đầu ra ASIO",
  "1054": "Hãy khởi động lại Malody để thay đổi được áp dụng",
  "1055": "Malody là món quà dành cho những người yêu thích game âm nhạc trên toàn cầu",
  "1056": "Skin này có giá %d vàng",
  "1057": "Điều chỉnh độ trễ:",
  "1058": "Đang đăng nhập",
  "1059": "Đã đăng nhập",
  "1060": "Vui lòng lựa chọn độ khó",
  "1061": "Vui lòng hủy trạng thái sẵn sàng trước",
  "1062": "Có người chơi chưa sẵn sàng",
  "1063": "Đã thêm vào mục tải về",
  "1064": "Đã kết nối với máy chủ trực tuyến",
  "1065": "Bạn đang là chủ phòng",
  "1066": "Rất tiếc! Bạn không có đủ vàng để tải màn chơi này trong cửa hàng. Bạn có thể kiếm thêm vàng bằng cách chơi các màn chơi hoặc hoàn thành nhiệm vụ hằng ngày.",
  "1067": "Trả lời nhanh",
  "1068": "Sẵn sàng!",
  "1069": "Bắt đầu nào",
  "1070": "Khoan đã! Chờ một chút!",
  "1071": "Màn chơi này khó quá",
  "1072": "Game là dễ",
  "1073": "Trận đấu hay lắm",
  "1074": "Tiếp tục chơi nữa nhé",
  "1075": "Chúng tôi đang ở trong giai đoạn Truy Cập Sớm!\nĐiều này có nghĩa là không phải tính năng nào cũng sẽ hoạt động bình thường, nhưng hãy báo cáo lại những vấn đề mà bạn thấy sai sót hoặc cảm thấy khó chịu.\nCảm ơn bạn vì đã chơi Malody, và hi vọng rằng bạn sẽ quay trở lại khi trò chơi được hoàn thiện!",
  "1100": "Bạn có muốn đăng xuất?",
  "1101": "Phím đã được cài lại",
  "1102": "Việc làm mới màn chơi có thể sẽ mất một chút thời gian, bạn có muốn tiếp tục không?",
  "1103": "Bạn đã mở khoá được thành tích mới!",
  "1104": "Bạn đã mở khoá được mảnh ghép mới!",
  "1105": "Thêm vào bộ sưu tập",
  "1106": "Không thể lưu dữ liệu tài khoản",
  "1107": "Bạn có chắc muốn trả 5,000 vàng cho 1 tháng ảnh bìa tùy chỉnh không?",
  "1108": "Bạn không có đủ vàng",
  "1109": "Bạn có muốn trả 80,000 vàng để đổi tên không? (1 lần/180 ngày)",
  "1110": "Bạn có chắc muốn thoát khỏi phòng này không?",
  "1111": "Chức năng này đang trong quá trình phát triển :)",
  "1112": "Bạn hiện không ở trong phòng nào",
  "1113": "Trả %d vàng để mua thêm chỗ màn chơi",
  "1114": "Thanh toán thành công",
  "1115": "Thanh toán đã bị hủy do lỗi hệ thống",
  "1116": "Liên kết cài lại mật khẩu đã được gửi vào e-mail",
  "1117": "Bạn có chắc muốn xoá điểm cá nhân không?",
  "1118": "Mua Thành Công",
  "1119": "Với Chế Độ Siêu Tốc, bạn có thể điều chỉnh luật chơi thoải mái, nhưng điểm sẽ không được chấp nhận bởi hệ thống",
  "1120": "Đánh Giá Tại Điểm Cuối",
  "1121": "Ngón Tay Độc Nhất",
  "1122": "Trượt Sớm",
  "1123": "Vô Hiệu Hóa Nút Tạm Dừng",
  "1124": "Tốc Độ Âm Thanh",
  "1125": "Đang quét thư mục màn chơi",
  "1126": "Làm mới màn chơi thành công",
  "1127": "Đã lưu vào:",
  "1128": "Có phiên bản mới",
  "1129": "Tạm dừng và Tiếp tục đã bị tắt",
  "1130": "Chỉ có người chơi trên Malody V mới có thể tham gia được phòng 10 người",
  "1131": "Chia sẻ thành công",
  "1200": "Chọn Hành Động",
  "1201": "Chọn Kiểu Sắp Xếp",
  "1202": "Bạn có muốn tiếp tục?",
  "1203": "Chọn Chế Độ",
  "1204": "Chọn Loại Tệp Để Nhập",
  "1205": "Chọn Kiểu Màn Chơi",
  "1206": "Bạn có muốn dừng tải lên?",
  "1207": "Chọn số lượng vàng để ủng hộ",
  "1208": "Chọn số ngày chặn",
  "1209": "Lối tắt",
  "1210": "Tải Lên Và Chia Sẻ màn chơi tới những người khác",
  "1211": "Bạn có chắc muốn chia sẻ skin này đến xưởng làm việc không?",
  "1300": "Kiệt Tác",
  "1301": "Rất Tuyệt",
  "1302": "Tốt",
  "1303": "Cũng Được",
  "1304": "Tạm Thôi",
  "1305": "Hơi Tệ",
  "1306": "Tệ",
  "1307": "Rất Tệ",
  "2000": "Xoá thất bại",
  "2001": "Không thể xoá màn chơi SM",
  "2002": "Gửi tin nhắn thất bại",
  "2003": "Phiên bản này quá cũ, hạy cập nhật lên phiên bản mới nhất",
  "2004": "Màn chơi không ổn định",
  "2005": "Đăng nhập thất bại: hãy thử lại sau",
  "2006": "Đăng nhập thất bại: sai tên tài khoản hoặc mật khẩu",
  "2007": "Hãy chọn vị trí sau chỗ bắt đầu",
  "2008": "Hãy loại các nốt khác khỏi nốt giữ",
  "2009": "Không thể sao chép tệp đến thư mục màn chơi",
  "2010": "Đặt nốt giữ trước đi đã",
  "2011": "Không thể đặt nốt ở đây",
  "2012": "Chỉ hỗ trợ định dạng ảnh jpg/png",
  "2013": "Không thể chỉnh sửa màn chơi từ game khác",
  "2014": "Chỉ hỗ trợ định dạng âm thanh mp3/ogg",
  "2015": "SID không đúng",
  "2016": "CID không đúng",
  "2017": "Bạn không phải là chủ sở hữu màn chơi này",
  "2018": "Hãy kiểm tra lại thông tin màn chơi",
  "2019": "Không thể tải lên màn chơi đã ổn định",
  "2020": "Máy chủ lỗi, hãy liên hệ với chúng tôi",
  "2021": "Không thể tải lên máy chủ",
  "2022": "Hãy hủy lần tải lên trước",
  "2023": "Phát hiện BPM thất bại",
  "2024": "Tệp mà bạn đang tải lên đã tồn tại trong máy chủ. Trình chỉnh sửa sẽ tự động tải lên sau khi tệp được đổi tên",
  "2025": "Hãy chọn ảnh có kích thước bé hơn 2MB",
  "2026": "Ổ đĩa đầy hoặc không thể ghi dữ liệu",
  "2027": "Không thể nhập kiểu tệp này",
  "2028": "Không có nốt nào được chọn",
  "2029": "Đã đạt giới hạn tải màn lên!\nCác màn tải lên sẽ bị tính chỗ cho tới khi nó được ổn định. Hãy cố ổn định màn hoặc mua thêm chỗ để tải lên",
  "2030": "Không thể ủng hộ cho màn không ổn định",
  "2031": "Không có đủ vàng để ủng hộ",
  "2032": "Chơi màn này để được đánh giá",
  "2033": "Đã ngắt kết nối khỏi máy chủ",
  "2034": "Không thể thêm BPM ở đây",
  "2035": "BPM không hợp lệ",
  "2036": "Không thể thực hiện hành động này",
  "2037": "Trình chỉnh sửa có sẵn cho tài khoản đang hoạt động",
  "2038": "Giới hạn chất lượng của video nền là 720p@25fps",
  "2039": "Không thể sao chép màn chơi của game khác",
  "2040": "Không thể chọn chế độ chơi cho skin đang sử dụng",
  "2041": "Bạn không có đủ vàng",
  "2042": "Tệp không thể tải về",
  "2043": "Không thể vào phòng",
  "2044": "Không thể tạo thêm phòng",
  "2045": "Nhập tên phòng",
  "2046": "Đã ở trong phòng",
  "2047": "Tệp xem lại bị lỗi",
  "2048": "Không thể chơi màn không có nốt",
  "2049": "Mở màn chơi thất bại",
  "2050": "Tắt điều chỉnh độ trễ linh hoạt để gửi điểm",
  "2052": "Phòng đã đầy",
  "2053": "Gửi điểm thất bại điểm do quá thấp",
  "2054": "Tính năng này đang được thử nghiệm",
  "2055": "Màn chơi không tồn tại trong cửa hàng",
  "2056": "Vui lòng thêm nốt",
  "2057": "Bạn đã có 6 màn chơi đang chờ được kiểm duyệt",
  "2058": "Vui lòng cập nhật tới phiên bản mới nhất để sử dụng tính năng này",
  "2059": "Sai mật khẩu!",
  "2060": "Vẫn có một đội đang bị bỏ trống. Chia lại cho cân bằng nào!",
  "2061": "[Lỗi] Màn này cần có đầy đủ: Tên bài hát, Tên tác giả, Phiên bản,...",
  "2062": "[Lỗi] Màn đang có nốt trùng nhau",
  "2063": "[Góp ý] Thêm hình nền cho màn chơi đi!",
  "2064": "[Lỗi] Màn phải có ít nhất 60 giây để chơi và số lượng nốt hợp lí",
  "2100": "Hãy chọn một nốt trượt",
  "2101": "Hãy chọn ít nhất 3 nốt vuốt",
  "2102": "Hãy đánh giá màn chơi trước khi gửi",
  "2103": "Tiêu đề hoặc tên nhạc sĩ chứa kí tự không phải ASCII",
  "2104": "Bạn đã bị cấm khỏi game!",
  "2105": "Hãy nhập thông tin cơ bản",
  "2106": "Mật khẩu không thể ngắn hơn 8 kí tự",
  "2107": "Mật khẩu không đúng",
  "2108": "Tên người dùng này đã được sử dụng",
  "2109": "Email này đã được sử dụng",
  "2110": "Chỉ được sử dụng a-z, 0-9 và []()-_@ cho tên người dùng và không được ngắn hơn 3 kí tự",
  "2111": "Email không hợp lệ",
  "2112": "Tải lên thất bại",
  "2113": "Chuyển đổi tệp âm thanh thất bại",
  "2114": "Hãy chọn một màn chơi",
  "2115": "Sai định dạng ngày",
  "2116": "Bạn đã thay đổi tên trong vòng 180 ngày",
  "2117": "Thất bại trong việc tải thêm màn chơi lên vì một lý do nào đó",
  "2118": "Hãy chọn một Máy Chủ Màn Chơi trong phần cài đặt",
  "2119": "Bạn không thể quyên góp tiền cho chính mình :')",
  "2120": "Hãy gửi điểm lên trước khi ủng hộ",
  "2121": "Bạn đã ủng 1000 vàng tới màn chơi",
  "2122": "Tổ chức không hợp lệ hoặc API không tương thích",
  "2123": "Máy chủ đang chuẩn bị khởi động lại, chế độ nhiều người chơi đã bị tắt",
  "2124": "Không thể nhận dữ liệu từ máy chủ",
  "2125": "Không thể kết nối tới Steam",
  "2126": "Bạn không có đủ quyền hạn",
  "2127": "Hãy chọn một skin",
  "2128": "Không thể tìm thấy thông tin về skin này",
  "2129": "Máy chủ dùng API không hợp lệ",
  "3000": "Thay đổi sẽ được lưu trước khi thử",
  "3001": "Lưu thay đổi trước khi thoát?",
  "3002": "Không thể hoàn lại việc xoá hết toàn bộ nốt",
  "3003": "Cài Đặt & Thoát",
  "3004": "Tên bài hát",
  "3005": "Tên tác giả",
  "3006": "Tệp Âm Thanh",
  "3007": "Bìa Nhạc",
  "3008": "Tệp Ảnh Nền",
  "3009": "BPM",
  "3010": "Độ trễ",
  "3011": "Lưu",
  "3012": "Thông tin",
  "3013": "Tải lên máy chủ",
  "3014": "Xoá hết toàn bộ nốt",
  "3015": "Tự động phát hiện",
  "3016": "Dò dòng thời gian và chọn điểm kết thúc",
  "3017": "Thử ở vị trí hiện tại",
  "3018": "Thử ở vị trí bắt đầu",
  "3020": "Tải lên thành công",
  "3021": "Lưu lại thành công",
  "3022": "Đã hủy tải lên",
  "3023": "Bạn thực sự muốn hủy tải lên?",
  "3024": "Tự động phát hiện BPM thành công",
  "3025": "Áp dụng kết quả",
  "3026": "Chưa chắc chắn: ",
  "3027": "Bạn nên để trình chỉnh sửa dùng Auto-Timing để tự động phát hiện BPM và độ trễ trong lần chỉnh sửa đầu tiên. Auto-Timing có thể tìm thấy trong phần Menu khi chỉnh sửa. Nếu không thì BPM và độ trễ có thể được chỉnh sửa trực tiếp trong Menu -> Meta",
  "3028": "Làm thế nào để ổn định được màn chơi?",
  "3029": "Xem trang web của màn chơi",
  "3030": "Cột",
  "3031": "Thoát và lưu",
  "3032": "Thoát nhưng không lưu",
  "3033": "Mua thêm chỗ chứa màn chơi",
  "3034": "Số lượng màn chơi trống:",
  "3035": "Chia",
  "3036": "Tốc độ",
  "3037": "Tùy chọn",
  "3038": "Danh sách file",
  "3039": "Xuất ra thư mục <export> thành công",
  "3040": "Xuất ra thất bại",
  "3041": "Xuất ra gói màn chơi",
  "3042": "Xuất ra thư mục <Documents/export> thành công",
  "3043": "Tự động lưu mỗi phút",
  "3044": "Khoá nốt",
  "3045": "Tốc độ rơi",
  "3046": "Nhấn nút đó lần nữa để chọn điểm kết",
  "3047": "Đường cùng rồi :'D",
  "3048": "BÙM! Một MARLO hoang dã đã xuất hiện!",
  "3049": "Thanh Kẻ Bắt Đầu Tại",
  "3050": "Đặt Từ Nhịp Đánh Hiện Tại",
  "3051": "Số Lần Gõ",
  "3052": "Danh sách kiểm duyệt",
  "3053": "Gửi màn chơi để kiểm duyệt",
  "3054": "Đang chờ kiểm duyệt",
  "3055": "Đang kiểm duyệt",
  "3056": "Bị từ chối",
  "3057": "Không có dữ liệu",
  "3058": "Đánh dấu là Kiểm Duyệt",
  "3059": "Đánh dấu là Từ Chối",
  "3060": "Hủy gửi lên",
  "3061": "Liên hệ người xuất bản",
  "3062": "Liên hệ người tạo",
  "3063": "Tải màn chơi về",
  "3064": "Chọn vùng sao chép",
  "3065": "Dán",
  "3066": "Cắt",
  "3067": "Đảo nốt theo đối xứng tâm",
  "3068": "Cài đặt lưới",
  "3069": "Đường lưới",
  "3070": "Căn chỉnh lưới",
  "3071": "Điểu chỉnh nốt trượt",
  "3072": "Nốt Trượt sang Vuốt",
  "3073": "Nốt Vuốt sang Trượt",
  "3074": "Thời gian xem trước",
  "3075": "Tiêu Đề Gốc",
  "3076": "Tác Giả Gốc",
  "3077": "Bước Đơn",
  "3078": "Người tạo",
  "3079": "Tải lên",
  "3080": "Chơi Thử",
  "3081": "Hoàn tác",
  "3082": "Hoàn lại",
  "3083": "Phát Hiện BPM",
  "3084": "Khoá Phím Mặc Định",
  "3085": "Khoá phím Ở Chế Độ Hiện Tại",
  "3086": "Thêm",
  "3087": "Xoá",
  "3088": "Có áp dụng kết quả phát hiện BPM vào điểm canh thời gian chính không?",
  "3089": "Bộ Chia Đầy Đủ",
  "3090": "Để Máy Đánh Giá",
  "3091": "Tỉ Lệ Lưới",
  "3092": "Thêm Hành Động",
  "3093": "Xem Thống Kê",
  "3094": "Độ Dày Nốt",
  "3095": "Tốc Độ Nốt",
  "3096": "Tự Gióng Nốt với Lưới",
  "3097": "Bình Duyệt",
  "3098": "Các Nốt Tương Tự",
  "3099": "Thời Gian Tương Tự",
  "3100": "Trả lời",
  "3101": "Nhãn Vấn Đề",
  "3102": "Mở",
  "3103": "Đóng",
  "3104": "Mở lại",
  "3105": "Không hợp lệ",
  "3500": "Lưu",
  "3501": "Thử nghiệm",
  "3502": "",
  "3503": "Âm lượng+",
  "3504": "Âm lượng-",
  "3505": "Âm Lượng Phím+",
  "3506": "Âm Lượng Phím-",
  "3507": "Tốc độ+",
  "3508": "Tốc độ-",
  "3509": "Phát/Tạm dừng",
  "3510": "Chia+",
  "3511": "Chia-",
  "3512": "Sao chép",
  "3513": "Dán",
  "3514": "Công Cụ Nốt",
  "3515": "Công Cụ Nốt Giữ",
  "3516": "Chọn Công Cụ",
  "3517": "Công Cụ Xoá",
  "3518": "Hoàn tác",
  "3519": "Hoàn lại",
  "3520": "Lật nốt",
  "3521": "Mở Danh Sách BPM",
  "3522": "Mở Bảng Thông Tin",
  "3523": "Mở Bảng Tải Lên",
  "3524": "Công Cụ Nốt Vuốt",
  "3525": "Công Cụ Nốt Trượt",
  "3526": "Chia",
  "3527": "Hợp thành",
  "3528": "Công Cụ Nốt Gạt",
  "3529": "Thay Đổi Kích Cỡ",
  "3530": "Thêm Don",
  "3531": "Thêm Ka",
  "3532": "Thêm Trống Dồn",
  "3533": "Thêm Bong Bóng",
  "3534": "Thêm Khoảng Cách",
  "3535": "Di Chuyển Trái",
  "3536": "Di Chuyển Phải",
  "3537": "Cắt",
  "3538": "Xóa Mục Đã Chọn",
  "3539": "Tỉ lệ+",
  "3540": "Tỉ lệ-",
  "3541": "Thêm Lỗi",
  "3542": "Tắt Âm Phím",
  "3543": "Thêm hành động",
  "3600": "Trở về",
  "3601": "Chọn Phía Trên",
  "3602": "Chọn Phía Dưới",
  "3603": "Xác nhận",
  "3604": "Tùy Chọn Khởi Chạy",
  "3605": "Chạy Bài Kế",
  "3606": "Chạy Bài Trước",
  "3607": "Làm mới Màn chơi",
  "3608": "Chụp màn hình",
  "3609": "Chơi Lại Nhanh",
  "4000": "Không xác định",
  "4001": "Châu Á",
  "4002": "Châu Phi",
  "4003": "Bắc Mỹ",
  "4004": "Nam Mỹ",
  "4005": "Châu Âu",
  "4006": "Châu Úc",
  "4007": "Nhật Bản",
  "4008": "Trung Quốc",
  "4009": "Hoa Kỳ",
  "4010": "Đài Loan (Trung Quốc)",
  "4011": "Hàn Quốc",
  "4012": "Đức",
  "4013": "Nga",
  "4014": "Ba Lan",
  "4015": "Pháp",
  "4016": "Hồng Kông (Trung Quốc)",
  "4017": "Canada",
  "4018": "Chile",
  "4019": "Indonesia",
  "4020": "Brazil",
  "4021": "Thái Lan",
  "4022": "Ý",
  "4023": "Vương Quốc Anh",
  "4024": "Argentina",
  "4025": "Philippines",
  "4026": "Phần Lan",
  "4027": "Netherlands",
  "4028": "Malaysia",
  "4029": "Tây Ban Nha",
  "4030": "Mexico",
  "4031": "Thuỵ Điển",
  "4032": "Singapore",
  "4033": "New Zealand",
  "4034": "Việt Nam",
  "4035": "Bỉ",
  "4036": "Thuỵ Sĩ",
  "4037": "Châu Úc",
  "4038": "Bulgaria",
  "4039": "Ma Cao (Trung Quốc)",
  "5000": "Chào mừng bạn đã đến với Malody V. Bạn có muốn chơi qua phần hướng dẫn không?",
  "5001": "Nhập màn chơi/skin/bài hát.",
  "5002": "Lọc danh sách nhạc theo yêu thích",
  "5003": "Lọc danh sách nhạc theo chế độ chơi",
  "5004": "Sảnh Multiplayer, Phòng Dan",
  "5005": "Xem màn chơi/skin được chia sẻ bởi người chơi khác",
  "5006": "Nhiệm vụ hằng ngày",
  "5007": "Bảng tin từ máy chủ",
  "5008": "Xem bạn bè hoặc tìm người chơi khác",
  "5009": "Trò chuyện với người chơi khác đang trực tuyến",
  "5010": "Xem kỷ lục đã tải về, bản điều chỉnh bài hát",
  "5011": "Thêm màn chơi đã chọn vào bộ sưu tập",
  "5012": "Thay đổi độ khó/mod",
  "5013": "Xem bình luận màn chơi, hạng toàn cầu",
  "5014": "Thay đổi độ khó judge, judge tùy chỉnh",
  "5015": "Thay đổi tốc độ nốt",
  "5016": "Quản lý/Chia sẻ màn chơi",
  "5017": "Nhiều cài đặt tùy chỉnh như độ trễ và đồ họa sẽ xuất hiện khi game đang tạm dừng",
  "5018": "Ủng hộ vàng tới người tạo màn chơi",
  "5019": "Đề cử/Không đề cử màn chơi tới người chơi khác",
  "5020": "Chia sẻ cảnh quay màn chơi",
  "5021": "Xem thống kê kĩ thuật"
}