{
  "composer.dialog.del": "確定要删除此模塊嗎？",
  "composer.dialog.export": "Export Skin Package(MSP)",
  "composer.dialog.filter": "Choose Usage Filter",
  "composer.dialog.holder": "Choose PlaceHolder",
  "composer.dialog.import": "Import Resource Package",
  "composer.dialog.import.ok": "Resource Package imported successfully!",
  "composer.dialog.pause": "Pause is missing in skin. Are you sure to continue?",
  "composer.dialog.res": "Choose Internal Image",
  "composer.ele.acc": "精確度",
  "composer.ele.bg": "遊玩區域背景",
  "composer.ele.catcher": "Catcher",
  "composer.ele.col": "Pure Color Image",
  "composer.ele.combo": "連擊",
  "composer.ele.cover": "上隱遮罩",
  "composer.ele.cus": "自定義",
  "composer.ele.fast": "打擊早/晚",
  "composer.ele.frame": "幀動畫",
  "composer.ele.hit": "打擊效果",
  "composer.ele.hold": "Hold",
  "composer.ele.hp": "血條",
  "composer.ele.hp1": "遮罩圖",
  "composer.ele.hp1.tip": "帶遮罩單一圖片",
  "composer.ele.img": "圖片",
  "composer.ele.judge": "判定",
  "composer.ele.line": "Note Line",
  "composer.ele.meta": "譜面資訊",
  "composer.ele.mp": "實时排名",
  "composer.ele.note": "Note",
  "composer.ele.num": "Dynamic Number",
  "composer.ele.num.tip": "Use Image as Number Characters",
  "composer.ele.pause": "暫停按鈕",
  "composer.ele.press": "按下效果",
  "composer.ele.prog": "進度",
  "composer.ele.score": "分數",
  "composer.ele.script": "Script",
  "composer.ele.script.tip": "Controll modules at playing",
  "composer.ele.skip": "跳過",
  "composer.ele.text": "文字",
  "composer.ele.text.tip": "文字,動態文字",
  "composer.ele.value": "Script Value",
  "composer.ele.watch": "圍觀狀態",
  "composer.err.avail": "Skin Composer is not availble for the mode :(",
  "composer.err.conflict": "與現有設定衝突",
  "composer.err.follow": "The Option is only available for module on PlayField layers",
  "composer.err.frame": "檔名不滿足格式:首碼-數位",
  "composer.err.frame.2": "無法找到可用的序列圖片",
  "composer.err.frame.3": "請輸入有效的總幀數",
  "composer.err.jpg": "需要選擇小於1Mb的圖片檔案",
  "composer.err.name": "需要先輸入皮膚名稱",
  "composer.err.number": "Needs 0-9 to reach minimal requirement",
  "composer.err.test.1": "Failed to prepare test resource",
  "composer.err.test.2": "No suitable chart for the skin",
  "composer.err.wronglayer": "The module cannot be placed on this layer",
  "composer.flag.eq": "等於（=）",
  "composer.flag.large": "大於（>）",
  "composer.flag.less": "小於（<）",
  "composer.flag.neq": "不等於（！=）",
  "composer.flag.occur": "發生時",
  "composer.info.cover": "皮膚封面",
  "composer.info.creator": "作者",
  "composer.info.desc": "描述",
  "composer.info.judge": "Judge Position",
  "composer.info.lock": "Lock Settings",
  "composer.info.lock.tip": "Players can't change settings",
  "composer.info.name": "皮膚名稱",
  "composer.info.path": "本地路徑",
  "composer.label.addi": "Additive",
  "composer.label.alpha": "透明度",
  "composer.label.anchor": "定位點",
  "composer.label.basic": "基礎内容",
  "composer.label.cnt": "內容",
  "composer.label.coexist": "Enable Coexistence",
  "composer.label.coexist.tip": "Simultaneous trigger effects can coexist",
  "composer.label.color": "顏色",
  "composer.label.count": "幀圖片數量",
  "composer.label.def": "基礎模塊",
  "composer.label.dynnum": "Number Settings",
  "composer.label.ele": "元件資訊",
  "composer.label.fill": "從左側填充",
  "composer.label.filter": "Filter",
  "composer.label.follow": "Follow Note Anchor",
  "composer.label.font": "字體",
  "composer.label.fps": "目標FPS",
  "composer.label.fx": "水准翻轉",
  "composer.label.fy": "垂直翻轉",
  "composer.label.h": "高度",
  "composer.label.hide": "Hide when Finished",
  "composer.label.hidedef": "隱藏默認模塊",
  "composer.label.img": "圖片",
  "composer.label.img.tip": "選擇序列幀第一張圖",
  "composer.label.imgset": "圖片内容",
  "composer.label.info": "皮膚資訊",
  "composer.label.layer": "層級",
  "composer.label.loop": "迴圈動畫",
  "composer.label.mod": "皮膚模塊",
  "composer.label.notescale": "Note Scale",
  "composer.label.option": "(Optional)",
  "composer.label.order": "順序",
  "composer.label.pad": "Padding",
  "composer.label.pivot": "中心點",
  "composer.label.pos": "座標",
  "composer.label.posdelta": "Position Delta",
  "composer.label.preview": "Preview",
  "composer.label.preview.e": "End",
  "composer.label.preview.s": "Start",
  "composer.label.req": "適用條件",
  "composer.label.req.1": "選擇場景源",
  "composer.label.req.2": "選擇比較管道",
  "composer.label.req.3": "選擇值",
  "composer.label.res": "資源",
  "composer.label.res.add": "Overlap",
  "composer.label.res.arr.l": "Arrow Left",
  "composer.label.res.arr.r": "Arrow Right",
  "composer.label.res.arr.u": "Arrow Up",
  "composer.label.res.b": "資源-中部",
  "composer.label.res.h": "資源-頭部",
  "composer.label.res.h.add": "Head Overlap",
  "composer.label.res.r": "資源-尾部",
  "composer.label.res.r.add": "Rear Overlap",
  "composer.label.res.same": "Chord",
  "composer.label.rotate": "繞中心旋轉角度",
  "composer.label.sim": "隱藏預覽圖",
  "composer.label.size": "大小",
  "composer.label.slice": "切片（左/上/右/下）",
  "composer.label.temp": "預覽值",
  "composer.label.text": "文字内容",
  "composer.label.trigger": "觸發器",
  "composer.label.type": "模塊類型",
  "composer.label.usage": "選擇用途",
  "composer.label.value": "Value",
  "composer.label.value.bool": "Boolean",
  "composer.label.w": "寬度",
  "composer.layer.an": "遊玩區（Note之上）",
  "composer.layer.bg": "背景層",
  "composer.layer.pf": "遊玩區（Note之下）",
  "composer.layer.tp": "頂層",
  "composer.res.ava": "User Avatar",
  "composer.res.cover": "Song Cover",
  "composer.source.acc": "準確度",
  "composer.source.arrow": "Arrow Type",
  "composer.source.arrow.1": "Left",
  "composer.source.arrow.2": "Upward",
  "composer.source.arrow.3": "Right",
  "composer.source.art": "歌曲藝術家",
  "composer.source.arto": "歌曲藝術家（原文）",
  "composer.source.best": "累計Best",
  "composer.source.cool": "累計Cool",
  "composer.source.creator": "譜面作者",
  "composer.source.denom": "Subdivision",
  "composer.source.fast": "打早",
  "composer.source.good": "累計Good",
  "composer.source.h": "荧幕高度",
  "composer.source.hp": "HP值",
  "composer.source.judge": "擊打判定",
  "composer.source.judge.1": "按住Hold獎勵",
  "composer.source.judge.2": "滑動（Flick）獎勵",
  "composer.source.judge.3": "Rain Bonus",
  "composer.source.judge.4": "Wipe Bonus",
  "composer.source.kps.cur": "Realtime KPS",
  "composer.source.kps.max": "Max KPS",
  "composer.source.kps.total": "Total Input",
  "composer.source.level": "Judge Level",
  "composer.source.maxcb": "Max Combo",
  "composer.source.miss": "累計Miss",
  "composer.source.mod": "Mod Type",
  "composer.source.note": "Action on Note",
  "composer.source.note.1": "Hitted",
  "composer.source.note.2": "Holding",
  "composer.source.note.3": "Flicked",
  "composer.source.note.4": "Released",
  "composer.source.notetype": "Note Type",
  "composer.source.nps.cur": "Realtime NPS",
  "composer.source.nps.max": "Max NPS",
  "composer.source.nps.total": "Total Hitted",
  "composer.source.plat": "運行平臺",
  "composer.source.play": "Play By",
  "composer.source.play.1": "Player",
  "composer.source.play.2": "Auto",
  "composer.source.play.3": "Replay",
  "composer.source.player": "Player Name",
  "composer.source.press": "Press Status",
  "composer.source.press.1": "Down",
  "composer.source.press.2": "Move",
  "composer.source.press.3": "Up",
  "composer.source.prog": "進度（%）",
  "composer.source.rat": "螢幕比例（寬/高）",
  "composer.source.score": "總分",
  "composer.source.slow": "打晚",
  "composer.source.time": "音樂時間",
  "composer.source.title": "歌曲標題",
  "composer.source.titleo": "歌曲標題（原文）",
  "composer.source.total": "Total Time",
  "composer.source.uid": "Player ID",
  "composer.source.ver": "譜面版本",
  "composer.source.w": "荧幕寬度",
  "composer.source.x": "Note水准位置（軌道/X）",
  "config.bind.tip": "也可以從設定中再次訪問按鍵綁定",
  "config.exp.cube6k": "以Cube模式遊玩6K譜",
  "config.host": "官方",
  "config.play": "從遊玩-暫停選單-設定中調整",
  "config.prelude": "跳過前奏",
  "edit.dialog.reload": "Reload Plugins",
  "edit.err.fatal": "無法編輯此檔案",
  "edit.err.toolong": "過長的資訊無法保存",
  "edit.tip.divful": "Show extra divide 1/7 ~ 1/32",
  "edit.tip.open": "打開",
  "edit.tip.play": "試玩",
  "edit.tip.save": "保存",
  "import.error": "啟動失敗",
  "import.file": "已接收檔案:",
  "import.finish": "結束",
  "import.init": "等待啟動",
  "import.noip": "無法獲取IP（不在WIFI/局域網環境）",
  "import.run": "工作中",
  "import.start": "啟動",
  "import.title": "局域網快傳",
  "lobby.create.host": "Host Only",
  "lobby.create.num": "Player Capcity",
  "play.config.adv": "Advanced",
  "play.config.cube.init": "啟用孵化動畫",
  "play.config.graphic.tip": "如果不知道含義,請保持值為0",
  "play.config.light": "打擊光亮度",
  "play.taiko.beta": "Taiko support is in BETA",
  "result.tip.mm": "MM Point:",
  "result.tip.submit": "Score is uploading..",
  "skin.local.beta": "皮膚支持還不完成,現時仍在開發中",
  "skin.local.create": "皮膚編輯器",
  "skin.local.mismatch": "This skin was created by a higher version and may not be compatible with the current version.",
  "skin.local.warn": "The skin is created by other player, may cause low performace, crashes, or other issues. Please use it at your own risk",
  "top.tip.collect": "我的最愛",
  "top.tip.dl": "下載",
  "top.tip.import": "導入",
  "top.tip.logout": "登出",
  "top.tip.mod": "Mod",
  "top.tip.mode": "模式",
  "top.tip.search": "蒐索",
  "top.tip.selectok": "確定",
  "top.tip.setting": "設定",
  "top.tip.sort": "排序"
}